%!PS-Adobe-3.0 EPSF-3.0
%%Title: EarlyRecognitionBoulahia-Comparison.eps
%%Creator: Matplotlib v3.7.0, https://matplotlib.org/
%%CreationDate: Mon Jun  5 10:16:50 2023
%%Orientation: portrait
%%BoundingBox: -5 213 618 579
%%HiResBoundingBox: -5.864062 213.418125 617.864063 578.581875
%%EndComments
%%BeginProlog
/mpldict 11 dict def
mpldict begin
/_d { bind def } bind def
/m { moveto } _d
/l { lineto } _d
/r { rlineto } _d
/c { curveto } _d
/cl { closepath } _d
/ce { closepath eofill } _d
/box {
      m
      1 index 0 r
      0 exch r
      neg 0 r
      cl
    } _d
/clipbox {
      box
      clip
      newpath
    } _d
/sc { setcachedevice } _d
%!PS-Adobe-3.0 Resource-Font
%%Creator: Converted from TrueType to Type 3 by Matplotlib.
10 dict begin
/FontName /DejaVuSans def
/PaintType 0 def
/FontMatrix [0.00048828125 0 0 0.00048828125 0 0] def
/FontBBox [-2090 -948 3673 2524] def
/FontType 3 def
/Encoding [/minus /space /zero /one /two /three /four /five /six /seven /eight /nine /C /D /E /F /O /a /c /e /i /n /o /p /r /s /t /u] def
/CharStrings 29 dict dup begin
/.notdef 0 def
/minus{1716 0 217 557 1499 727 sc
217 727 m
1499 727 l
1499 557 l
217 557 l
217 727 l

ce} _d
/space{651 0 0 0 0 0 sc
ce} _d
/zero{1303 0 135 -29 1167 1520 sc
651 1360 m
547 1360 469 1309 416 1206 c
364 1104 338 950 338 745 c
338 540 364 387 416 284 c
469 182 547 131 651 131 c
756 131 834 182 886 284 c
939 387 965 540 965 745 c
965 950 939 1104 886 1206 c
834 1309 756 1360 651 1360 c

651 1520 m
818 1520 946 1454 1034 1321 c
1123 1189 1167 997 1167 745 c
1167 494 1123 302 1034 169 c
946 37 818 -29 651 -29 c
484 -29 356 37 267 169 c
179 302 135 494 135 745 c
135 997 179 1189 267 1321 c
356 1454 484 1520 651 1520 c

ce} _d
/one{1303 0 225 0 1114 1493 sc
254 170 m
584 170 l
584 1309 l
225 1237 l
225 1421 l
582 1493 l
784 1493 l
784 170 l
1114 170 l
1114 0 l
254 0 l
254 170 l

ce} _d
/two{1303 0 150 0 1098 1520 sc
393 170 m
1098 170 l
1098 0 l
150 0 l
150 170 l
227 249 331 356 463 489 c
596 623 679 709 713 748 c
778 821 823 882 848 932 c
874 983 887 1032 887 1081 c
887 1160 859 1225 803 1275 c
748 1325 675 1350 586 1350 c
523 1350 456 1339 385 1317 c
315 1295 240 1262 160 1217 c
160 1421 l
241 1454 317 1478 388 1495 c
459 1512 523 1520 582 1520 c
737 1520 860 1481 952 1404 c
1044 1327 1090 1223 1090 1094 c
1090 1033 1078 974 1055 919 c
1032 864 991 800 930 725 c
913 706 860 650 771 557 c
682 465 556 336 393 170 c

ce} _d
/three{1303 0 156 -29 1139 1520 sc
831 805 m
928 784 1003 741 1057 676 c
1112 611 1139 530 1139 434 c
1139 287 1088 173 987 92 c
886 11 742 -29 555 -29 c
492 -29 428 -23 361 -10 c
295 2 227 20 156 45 c
156 240 l
212 207 273 183 340 166 c
407 149 476 141 549 141 c
676 141 772 166 838 216 c
905 266 938 339 938 434 c
938 522 907 591 845 640 c
784 690 698 715 588 715 c
414 715 l
414 881 l
596 881 l
695 881 771 901 824 940 c
877 980 903 1037 903 1112 c
903 1189 876 1247 821 1288 c
767 1329 689 1350 588 1350 c
533 1350 473 1344 410 1332 c
347 1320 277 1301 201 1276 c
201 1456 l
278 1477 349 1493 416 1504 c
483 1515 547 1520 606 1520 c
759 1520 881 1485 970 1415 c
1059 1346 1104 1252 1104 1133 c
1104 1050 1080 980 1033 923 c
986 866 918 827 831 805 c

ce} _d
/four{1303 0 100 0 1188 1493 sc
774 1317 m
264 520 l
774 520 l
774 1317 l

721 1493 m
975 1493 l
975 520 l
1188 520 l
1188 352 l
975 352 l
975 0 l
774 0 l
774 352 l
100 352 l
100 547 l
721 1493 l

ce} _d
/five{1303 0 158 -29 1124 1493 sc
221 1493 m
1014 1493 l
1014 1323 l
406 1323 l
406 957 l
435 967 465 974 494 979 c
523 984 553 987 582 987 c
749 987 881 941 978 850 c
1075 759 1124 635 1124 479 c
1124 318 1074 193 974 104 c
874 15 733 -29 551 -29 c
488 -29 424 -24 359 -13 c
294 -2 227 14 158 35 c
158 238 l
218 205 280 181 344 165 c
408 149 476 141 547 141 c
662 141 754 171 821 232 c
888 293 922 375 922 479 c
922 583 888 665 821 726 c
754 787 662 817 547 817 c
493 817 439 811 385 799 c
332 787 277 768 221 743 c
221 1493 l

ce} _d
/six{1303 0 143 -29 1174 1520 sc
676 827 m
585 827 513 796 460 734 c
407 672 381 587 381 479 c
381 372 407 287 460 224 c
513 162 585 131 676 131 c
767 131 838 162 891 224 c
944 287 971 372 971 479 c
971 587 944 672 891 734 c
838 796 767 827 676 827 c

1077 1460 m
1077 1276 l
1026 1300 975 1318 923 1331 c
872 1344 821 1350 770 1350 c
637 1350 535 1305 464 1215 c
394 1125 354 989 344 807 c
383 865 433 909 492 940 c
551 971 617 987 688 987 c
838 987 956 941 1043 850 c
1130 759 1174 636 1174 479 c
1174 326 1129 203 1038 110 c
947 17 827 -29 676 -29 c
503 -29 371 37 280 169 c
189 302 143 494 143 745 c
143 981 199 1169 311 1309 c
423 1450 573 1520 762 1520 c
813 1520 864 1515 915 1505 c
967 1495 1021 1480 1077 1460 c

ce} _d
/seven{1303 0 168 0 1128 1493 sc
168 1493 m
1128 1493 l
1128 1407 l
586 0 l
375 0 l
885 1323 l
168 1323 l
168 1493 l

ce} _d
/eight{1303 0 139 -29 1163 1520 sc
651 709 m
555 709 479 683 424 632 c
369 581 342 510 342 420 c
342 330 369 259 424 208 c
479 157 555 131 651 131 c
747 131 823 157 878 208 c
933 260 961 331 961 420 c
961 510 933 581 878 632 c
823 683 748 709 651 709 c

449 795 m
362 816 295 857 246 916 c
198 975 174 1048 174 1133 c
174 1252 216 1347 301 1416 c
386 1485 503 1520 651 1520 c
800 1520 916 1485 1001 1416 c
1086 1347 1128 1252 1128 1133 c
1128 1048 1104 975 1055 916 c
1007 857 940 816 854 795 c
951 772 1027 728 1081 662 c
1136 596 1163 515 1163 420 c
1163 275 1119 164 1030 87 c
942 10 816 -29 651 -29 c
486 -29 360 10 271 87 c
183 164 139 275 139 420 c
139 515 166 596 221 662 c
276 728 352 772 449 795 c

375 1114 m
375 1037 399 976 447 933 c
496 890 564 868 651 868 c
738 868 805 890 854 933 c
903 976 928 1037 928 1114 c
928 1191 903 1252 854 1295 c
805 1338 738 1360 651 1360 c
564 1360 496 1338 447 1295 c
399 1252 375 1191 375 1114 c

ce} _d
/nine{1303 0 129 -29 1159 1520 sc
225 31 m
225 215 l
276 191 327 173 379 160 c
431 147 482 141 532 141 c
665 141 767 186 837 275 c
908 365 948 501 958 684 c
919 627 870 583 811 552 c
752 521 686 506 614 506 c
465 506 346 551 259 641 c
172 732 129 855 129 1012 c
129 1165 174 1288 265 1381 c
356 1474 476 1520 627 1520 c
800 1520 931 1454 1022 1321 c
1113 1189 1159 997 1159 745 c
1159 510 1103 322 991 181 c
880 41 730 -29 541 -29 c
490 -29 439 -24 387 -14 c
335 -4 281 11 225 31 c

627 664 m
718 664 789 695 842 757 c
895 819 922 904 922 1012 c
922 1119 895 1204 842 1266 c
789 1329 718 1360 627 1360 c
536 1360 464 1329 411 1266 c
358 1204 332 1119 332 1012 c
332 904 358 819 411 757 c
464 695 536 664 627 664 c

ce} _d
/C{1430 0 115 -29 1319 1520 sc
1319 1378 m
1319 1165 l
1251 1228 1178 1276 1101 1307 c
1024 1338 943 1354 856 1354 c
685 1354 555 1302 464 1197 c
373 1093 328 942 328 745 c
328 548 373 398 464 293 c
555 189 685 137 856 137 c
943 137 1024 153 1101 184 c
1178 215 1251 263 1319 326 c
1319 115 l
1248 67 1173 31 1094 7 c
1015 -17 932 -29 844 -29 c
618 -29 440 40 310 178 c
180 317 115 506 115 745 c
115 985 180 1174 310 1312 c
440 1451 618 1520 844 1520 c
933 1520 1017 1508 1096 1484 c
1175 1461 1250 1425 1319 1378 c

ce} _d
/D{1577 0 201 0 1456 1493 sc
403 1327 m
403 166 l
647 166 l
853 166 1004 213 1099 306 c
1195 399 1243 547 1243 748 c
1243 948 1195 1094 1099 1187 c
1004 1280 853 1327 647 1327 c
403 1327 l

201 1493 m
616 1493 l
905 1493 1118 1433 1253 1312 c
1388 1192 1456 1004 1456 748 c
1456 491 1388 302 1252 181 c
1116 60 904 0 616 0 c
201 0 l
201 1493 l

ce} _d
/E{1294 0 201 0 1163 1493 sc
201 1493 m
1145 1493 l
1145 1323 l
403 1323 l
403 881 l
1114 881 l
1114 711 l
403 711 l
403 170 l
1163 170 l
1163 0 l
201 0 l
201 1493 l

ce} _d
/F{1178 0 201 0 1059 1493 sc
201 1493 m
1059 1493 l
1059 1323 l
403 1323 l
403 883 l
995 883 l
995 713 l
403 713 l
403 0 l
201 0 l
201 1493 l

ce} _d
/O{1612 0 115 -29 1497 1520 sc
807 1356 m
660 1356 544 1301 457 1192 c
371 1083 328 934 328 745 c
328 557 371 408 457 299 c
544 190 660 135 807 135 c
954 135 1070 190 1155 299 c
1241 408 1284 557 1284 745 c
1284 934 1241 1083 1155 1192 c
1070 1301 954 1356 807 1356 c

807 1520 m
1016 1520 1184 1450 1309 1309 c
1434 1169 1497 981 1497 745 c
1497 510 1434 322 1309 181 c
1184 41 1016 -29 807 -29 c
597 -29 429 41 303 181 c
178 321 115 509 115 745 c
115 981 178 1169 303 1309 c
429 1450 597 1520 807 1520 c

ce} _d
/a{1255 0 123 -29 1069 1147 sc
702 563 m
553 563 450 546 393 512 c
336 478 307 420 307 338 c
307 273 328 221 371 182 c
414 144 473 125 547 125 c
649 125 731 161 792 233 c
854 306 885 402 885 522 c
885 563 l
702 563 l

1069 639 m
1069 0 l
885 0 l
885 170 l
843 102 791 52 728 19 c
665 -13 589 -29 498 -29 c
383 -29 292 3 224 67 c
157 132 123 218 123 326 c
123 452 165 547 249 611 c
334 675 460 707 627 707 c
885 707 l
885 725 l
885 810 857 875 801 921 c
746 968 668 991 567 991 c
503 991 441 983 380 968 c
319 953 261 930 205 899 c
205 1069 l
272 1095 338 1114 401 1127 c
464 1140 526 1147 586 1147 c
748 1147 869 1105 949 1021 c
1029 937 1069 810 1069 639 c

ce} _d
/c{1126 0 113 -29 999 1147 sc
999 1077 m
999 905 l
947 934 895 955 842 969 c
790 984 737 991 684 991 c
565 991 472 953 406 877 c
340 802 307 696 307 559 c
307 422 340 316 406 240 c
472 165 565 127 684 127 c
737 127 790 134 842 148 c
895 163 947 184 999 213 c
999 43 l
948 19 894 1 839 -11 c
784 -23 726 -29 664 -29 c
495 -29 361 24 262 130 c
163 236 113 379 113 559 c
113 742 163 885 263 990 c
364 1095 501 1147 676 1147 c
733 1147 788 1141 842 1129 c
896 1118 948 1100 999 1077 c

ce} _d
/e{1260 0 113 -29 1151 1147 sc
1151 606 m
1151 516 l
305 516 l
313 389 351 293 419 226 c
488 160 583 127 705 127 c
776 127 844 136 910 153 c
977 170 1043 196 1108 231 c
1108 57 l
1042 29 974 8 905 -7 c
836 -22 765 -29 694 -29 c
515 -29 374 23 269 127 c
165 231 113 372 113 549 c
113 732 162 878 261 985 c
360 1093 494 1147 662 1147 c
813 1147 932 1098 1019 1001 c
1107 904 1151 773 1151 606 c

967 660 m
966 761 937 841 882 901 c
827 961 755 991 664 991 c
561 991 479 962 417 904 c
356 846 320 764 311 659 c
967 660 l

ce} _d
/i{569 0 193 0 377 1556 sc
193 1120 m
377 1120 l
377 0 l
193 0 l
193 1120 l

193 1556 m
377 1556 l
377 1323 l
193 1323 l
193 1556 l

ce} _d
/n{1298 0 186 0 1124 1147 sc
1124 676 m
1124 0 l
940 0 l
940 670 l
940 776 919 855 878 908 c
837 961 775 987 692 987 c
593 987 514 955 457 892 c
400 829 371 742 371 633 c
371 0 l
186 0 l
186 1120 l
371 1120 l
371 946 l
415 1013 467 1064 526 1097 c
586 1130 655 1147 733 1147 c
862 1147 959 1107 1025 1027 c
1091 948 1124 831 1124 676 c

ce} _d
/o{1253 0 113 -29 1141 1147 sc
627 991 m
528 991 450 952 393 875 c
336 798 307 693 307 559 c
307 425 335 319 392 242 c
449 165 528 127 627 127 c
725 127 803 166 860 243 c
917 320 946 426 946 559 c
946 692 917 797 860 874 c
803 952 725 991 627 991 c

627 1147 m
787 1147 913 1095 1004 991 c
1095 887 1141 743 1141 559 c
1141 376 1095 232 1004 127 c
913 23 787 -29 627 -29 c
466 -29 340 23 249 127 c
158 232 113 376 113 559 c
113 743 158 887 249 991 c
340 1095 466 1147 627 1147 c

ce} _d
/p{1300 0 186 -426 1188 1147 sc
371 168 m
371 -426 l
186 -426 l
186 1120 l
371 1120 l
371 950 l
410 1017 458 1066 517 1098 c
576 1131 647 1147 729 1147 c
865 1147 975 1093 1060 985 c
1145 877 1188 735 1188 559 c
1188 383 1145 241 1060 133 c
975 25 865 -29 729 -29 c
647 -29 576 -13 517 19 c
458 52 410 101 371 168 c

997 559 m
997 694 969 800 913 877 c
858 954 781 993 684 993 c
587 993 510 954 454 877 c
399 800 371 694 371 559 c
371 424 399 317 454 240 c
510 163 587 125 684 125 c
781 125 858 163 913 240 c
969 317 997 424 997 559 c

ce} _d
/r{842 0 186 0 842 1147 sc
842 948 m
821 960 799 969 774 974 c
750 980 723 983 694 983 c
590 983 510 949 454 881 c
399 814 371 717 371 590 c
371 0 l
186 0 l
186 1120 l
371 1120 l
371 946 l
410 1014 460 1064 522 1097 c
584 1130 659 1147 748 1147 c
761 1147 775 1146 790 1144 c
805 1143 822 1140 841 1137 c
842 948 l

ce} _d
/s{1067 0 111 -29 967 1147 sc
907 1087 m
907 913 l
855 940 801 960 745 973 c
689 986 631 993 571 993 c
480 993 411 979 365 951 c
320 923 297 881 297 825 c
297 782 313 749 346 724 c
379 700 444 677 543 655 c
606 641 l
737 613 829 573 884 522 c
939 471 967 400 967 309 c
967 205 926 123 843 62 c
761 1 648 -29 504 -29 c
444 -29 381 -23 316 -11 c
251 0 183 18 111 41 c
111 231 l
179 196 246 169 312 151 c
378 134 443 125 508 125 c
595 125 661 140 708 169 c
755 199 778 241 778 295 c
778 345 761 383 727 410 c
694 437 620 462 506 487 c
442 502 l
328 526 246 563 195 612 c
144 662 119 730 119 817 c
119 922 156 1004 231 1061 c
306 1118 412 1147 549 1147 c
617 1147 681 1142 741 1132 c
801 1122 856 1107 907 1087 c

ce} _d
/t{803 0 55 0 754 1438 sc
375 1438 m
375 1120 l
754 1120 l
754 977 l
375 977 l
375 369 l
375 278 387 219 412 193 c
437 167 488 154 565 154 c
754 154 l
754 0 l
565 0 l
423 0 325 26 271 79 c
217 132 190 229 190 369 c
190 977 l
55 977 l
55 1120 l
190 1120 l
190 1438 l
375 1438 l

ce} _d
/u{1298 0 174 -29 1112 1147 sc
174 442 m
174 1120 l
358 1120 l
358 449 l
358 343 379 263 420 210 c
461 157 523 131 606 131 c
705 131 784 163 841 226 c
899 289 928 376 928 485 c
928 1120 l
1112 1120 l
1112 0 l
928 0 l
928 172 l
883 104 831 53 772 20 c
713 -13 645 -29 567 -29 c
438 -29 341 11 274 91 c
207 171 174 288 174 442 c

637 1147 m
637 1147 l

ce} _d
end readonly def

/BuildGlyph {
 exch begin
 CharStrings exch
 2 copy known not {pop /.notdef} if
 true 3 1 roll get exec
 end
} _d

/BuildChar {
 1 index /Encoding get exch get
 1 index /BuildGlyph get exec
} _d

FontName currentdict end definefont pop
end
%%EndProlog
mpldict begin
-5.864 213.418 translate
623.728 365.164 0 0 clipbox
gsave
-0 0 m
623.728125 0 l
623.728125 365.16375 l
-0 365.16375 l
cl
1.000 setgray
fill
grestore
gsave
58.528125 53.04375 m
616.528125 53.04375 l
616.528125 357.96375 l
58.528125 357.96375 l
cl
1.000 setgray
fill
grestore
0.250 setlinewidth
1 setlinejoin
2 setlinecap
[] 0 setdash
0.690 setgray
gsave
558 304.92 58.528 53.044 clipbox
83.891761 53.04375 m
83.891761 357.96375 l
stroke
grestore
0.800 setlinewidth
0 setlinecap
0.000 setgray
gsave
/o {
gsave
newpath
translate
0.8 setlinewidth
1 setlinejoin

0 setlinecap

0 0 m
0 -3.5 l

gsave
0.000 setgray
fill
grestore
stroke
grestore
} bind def
83.8918 53.0438 o
grestore
/DejaVuSans 18.000 selectfont
gsave

64.8996 32.3719 translate
0 rotate
0 0 m /minus glyphshow
15.082 0 m /two glyphshow
26.5342 0 m /zero glyphshow
grestore
0.250 setlinewidth
2 setlinecap
0.690 setgray
gsave
558 304.92 58.528 53.044 clipbox
210.709943 53.04375 m
210.709943 357.96375 l
stroke
grestore
0.800 setlinewidth
0 setlinecap
0.000 setgray
gsave
/o {
gsave
newpath
translate
0.8 setlinewidth
1 setlinejoin

0 setlinecap

0 0 m
0 -3.5 l

gsave
0.000 setgray
fill
grestore
stroke
grestore
} bind def
210.71 53.0438 o
grestore
/DejaVuSans 18.000 selectfont
gsave

191.718 32.3719 translate
0 rotate
0 0 m /minus glyphshow
15.082 0 m /one glyphshow
26.5342 0 m /five glyphshow
grestore
0.250 setlinewidth
2 setlinecap
0.690 setgray
gsave
558 304.92 58.528 53.044 clipbox
337.528125 53.04375 m
337.528125 357.96375 l
stroke
grestore
0.800 setlinewidth
0 setlinecap
0.000 setgray
gsave
/o {
gsave
newpath
translate
0.8 setlinewidth
1 setlinejoin

0 setlinecap

0 0 m
0 -3.5 l

gsave
0.000 setgray
fill
grestore
stroke
grestore
} bind def
337.528 53.0438 o
grestore
/DejaVuSans 18.000 selectfont
gsave

318.536 32.3719 translate
0 rotate
0 0 m /minus glyphshow
15.082 0 m /one glyphshow
26.5342 0 m /zero glyphshow
grestore
0.250 setlinewidth
2 setlinecap
0.690 setgray
gsave
558 304.92 58.528 53.044 clipbox
464.346307 53.04375 m
464.346307 357.96375 l
stroke
grestore
0.800 setlinewidth
0 setlinecap
0.000 setgray
gsave
/o {
gsave
newpath
translate
0.8 setlinewidth
1 setlinejoin

0 setlinecap

0 0 m
0 -3.5 l

gsave
0.000 setgray
fill
grestore
stroke
grestore
} bind def
464.346 53.0438 o
grestore
/DejaVuSans 18.000 selectfont
gsave

451.081 32.3719 translate
0 rotate
0 0 m /minus glyphshow
15.082 0 m /five glyphshow
grestore
0.250 setlinewidth
2 setlinecap
0.690 setgray
gsave
558 304.92 58.528 53.044 clipbox
591.164489 53.04375 m
591.164489 357.96375 l
stroke
grestore
0.800 setlinewidth
0 setlinecap
0.000 setgray
gsave
/o {
gsave
newpath
translate
0.8 setlinewidth
1 setlinejoin

0 setlinecap

0 0 m
0 -3.5 l

gsave
0.000 setgray
fill
grestore
stroke
grestore
} bind def
591.164 53.0438 o
grestore
/DejaVuSans 18.000 selectfont
gsave

585.438 32.3719 translate
0 rotate
0 0 m /zero glyphshow
grestore
/DejaVuSans 18.000 selectfont
gsave

229.903 10.95 translate
0 rotate
0 0 m /D glyphshow
13.8604 0 m /i glyphshow
18.8613 0 m /s glyphshow
28.2393 0 m /t glyphshow
35.2969 0 m /a glyphshow
46.3271 0 m /n glyphshow
57.7354 0 m /c glyphshow
67.6318 0 m /e glyphshow
78.7061 0 m /space glyphshow
84.4277 0 m /t glyphshow
91.4854 0 m /o glyphshow
102.498 0 m /space glyphshow
108.22 0 m /a glyphshow
119.25 0 m /c glyphshow
129.146 0 m /t glyphshow
136.204 0 m /i glyphshow
141.205 0 m /o glyphshow
152.218 0 m /n glyphshow
163.626 0 m /space glyphshow
169.348 0 m /p glyphshow
180.773 0 m /o glyphshow
191.786 0 m /i glyphshow
196.787 0 m /n glyphshow
208.195 0 m /t glyphshow
grestore
0.250 setlinewidth
2 setlinecap
0.690 setgray
gsave
558 304.92 58.528 53.044 clipbox
58.528125 72.133939 m
616.528125 72.133939 l
stroke
grestore
0.800 setlinewidth
0 setlinecap
0.000 setgray
gsave
/o {
gsave
newpath
translate
0.8 setlinewidth
1 setlinejoin

0 setlinecap

-0 0 m
-3.5 0 l

gsave
0.000 setgray
fill
grestore
stroke
grestore
} bind def
58.5281 72.1339 o
grestore
/DejaVuSans 18.000 selectfont
gsave

28.6219 65.298 translate
0 rotate
0 0 m /four glyphshow
11.4521 0 m /zero glyphshow
grestore
0.250 setlinewidth
2 setlinecap
0.690 setgray
gsave
558 304.92 58.528 53.044 clipbox
58.528125 124.435825 m
616.528125 124.435825 l
stroke
grestore
0.800 setlinewidth
0 setlinecap
0.000 setgray
gsave
/o {
gsave
newpath
translate
0.8 setlinewidth
1 setlinejoin

0 setlinecap

-0 0 m
-3.5 0 l

gsave
0.000 setgray
fill
grestore
stroke
grestore
} bind def
58.5281 124.436 o
grestore
/DejaVuSans 18.000 selectfont
gsave

28.6219 117.6 translate
0 rotate
0 0 m /five glyphshow
11.4521 0 m /zero glyphshow
grestore
0.250 setlinewidth
2 setlinecap
0.690 setgray
gsave
558 304.92 58.528 53.044 clipbox
58.528125 176.737712 m
616.528125 176.737712 l
stroke
grestore
0.800 setlinewidth
0 setlinecap
0.000 setgray
gsave
/o {
gsave
newpath
translate
0.8 setlinewidth
1 setlinejoin

0 setlinecap

-0 0 m
-3.5 0 l

gsave
0.000 setgray
fill
grestore
stroke
grestore
} bind def
58.5281 176.738 o
grestore
/DejaVuSans 18.000 selectfont
gsave

28.6219 169.902 translate
0 rotate
0 0 m /six glyphshow
11.4521 0 m /zero glyphshow
grestore
0.250 setlinewidth
2 setlinecap
0.690 setgray
gsave
558 304.92 58.528 53.044 clipbox
58.528125 229.039599 m
616.528125 229.039599 l
stroke
grestore
0.800 setlinewidth
0 setlinecap
0.000 setgray
gsave
/o {
gsave
newpath
translate
0.8 setlinewidth
1 setlinejoin

0 setlinecap

-0 0 m
-3.5 0 l

gsave
0.000 setgray
fill
grestore
stroke
grestore
} bind def
58.5281 229.04 o
grestore
/DejaVuSans 18.000 selectfont
gsave

28.6219 222.204 translate
0 rotate
0 0 m /seven glyphshow
11.4521 0 m /zero glyphshow
grestore
0.250 setlinewidth
2 setlinecap
0.690 setgray
gsave
558 304.92 58.528 53.044 clipbox
58.528125 281.341486 m
616.528125 281.341486 l
stroke
grestore
0.800 setlinewidth
0 setlinecap
0.000 setgray
gsave
/o {
gsave
newpath
translate
0.8 setlinewidth
1 setlinejoin

0 setlinecap

-0 0 m
-3.5 0 l

gsave
0.000 setgray
fill
grestore
stroke
grestore
} bind def
58.5281 281.341 o
grestore
/DejaVuSans 18.000 selectfont
gsave

28.6219 274.506 translate
0 rotate
0 0 m /eight glyphshow
11.4521 0 m /zero glyphshow
grestore
0.250 setlinewidth
2 setlinecap
0.690 setgray
gsave
558 304.92 58.528 53.044 clipbox
58.528125 333.643373 m
616.528125 333.643373 l
stroke
grestore
0.800 setlinewidth
0 setlinecap
0.000 setgray
gsave
/o {
gsave
newpath
translate
0.8 setlinewidth
1 setlinejoin

0 setlinecap

-0 0 m
-3.5 0 l

gsave
0.000 setgray
fill
grestore
stroke
grestore
} bind def
58.5281 333.643 o
grestore
/DejaVuSans 18.000 selectfont
gsave

28.6219 326.807 translate
0 rotate
0 0 m /nine glyphshow
11.4521 0 m /zero glyphshow
grestore
/DejaVuSans 18.000 selectfont
gsave

20.8719 176.129 translate
90 rotate
0 0 m /F glyphshow
10.3535 0 m /s glyphshow
19.7314 0 m /c glyphshow
29.6279 0 m /o glyphshow
40.6406 0 m /r glyphshow
47.666 0 m /e glyphshow
grestore
3.000 setlinewidth
2 setlinecap
0.000 0.000 1.000 setrgbcolor
gsave
558 304.92 58.528 53.044 clipbox
83.891761 66.90375 m
109.255398 72.133939 l
134.619034 87.824505 l
159.98267 98.284882 l
185.346307 113.975448 l
210.709943 119.205637 l
236.07358 134.896203 l
261.437216 161.047146 l
286.800852 181.967901 l
312.164489 202.888656 l
337.528125 223.80941 l
362.891761 260.420731 l
388.255398 276.111297 l
413.619034 291.801863 l
438.98267 302.262241 l
464.346307 312.722618 l
489.709943 323.182995 l
515.07358 328.413184 l
540.437216 338.873561 l
565.800852 344.10375 l
591.164489 344.10375 l
stroke
grestore
1.000 0.000 0.000 setrgbcolor
gsave
558 304.92 58.528 53.044 clipbox
83.891761 81.025259 m
109.255398 86.255448 l
134.619034 89.393561 l
159.98267 99.853939 l
185.346307 108.222241 l
210.709943 120.251675 l
236.07358 136.988278 l
261.437216 147.448656 l
286.800852 158.432052 l
312.164489 173.599599 l
337.528125 183.013939 l
362.891761 196.612429 l
388.255398 203.934693 l
413.619034 212.826014 l
438.98267 220.671297 l
464.346307 227.470542 l
489.709943 237.407901 l
515.07358 244.730165 l
540.437216 254.144505 l
565.800852 259.374693 l
591.164489 269.312052 l
stroke
grestore
0.800 setlinewidth
0 setlinejoin
0.000 setgray
gsave
58.528125 53.04375 m
58.528125 357.96375 l
stroke
grestore
gsave
616.528125 53.04375 m
616.528125 357.96375 l
stroke
grestore
gsave
58.528125 53.04375 m
616.528125 53.04375 l
stroke
grestore
gsave
58.528125 357.96375 m
616.528125 357.96375 l
stroke
grestore
1.000 setlinewidth
0 setlinecap
0.800 setgray
gsave
71.128125 290.72 m
208.24375 290.72 l
210.64375 290.72 211.84375 291.92 211.84375 294.32 c
211.84375 345.36375 l
211.84375 347.76375 210.64375 348.96375 208.24375 348.96375 c
71.128125 348.96375 l
68.728125 348.96375 67.528125 347.76375 67.528125 345.36375 c
67.528125 294.32 l
67.528125 291.92 68.728125 290.72 71.128125 290.72 c
cl
gsave
1.000 setgray
fill
grestore
stroke
grestore
3.000 setlinewidth
1 setlinejoin
2 setlinecap
0.000 0.000 1.000 setrgbcolor
gsave
74.728125 334.391875 m
92.728125 334.391875 l
110.728125 334.391875 l
stroke
grestore
0.000 setgray
/DejaVuSans 18.000 selectfont
gsave

125.128 328.092 translate
0 rotate
0 0 m /O glyphshow
14.168 0 m /u glyphshow
25.5762 0 m /r glyphshow
32.9766 0 m /s glyphshow
grestore
1.000 0.000 0.000 setrgbcolor
gsave
74.728125 307.97 m
92.728125 307.97 l
110.728125 307.97 l
stroke
grestore
0.000 setgray
/DejaVuSans 18.000 selectfont
gsave

125.128 301.67 translate
0 rotate
0 0 m /E glyphshow
11.373 0 m /C glyphshow
23.9414 0 m /u glyphshow
35.3496 0 m /D glyphshow
49.21 0 m /i glyphshow
54.2109 0 m /three glyphshow
65.6631 0 m /D glyphshow
grestore

end
showpage
